R数据科学 R for data sciences | Dawn_Wang's blog
…
###exercises
##### 查看哪个航空公司延误时间最长
flights_not_cancelled %>% group_by(carrier) %>% summarise(count=n(),arr_delay_time=mean(arr_delay)) %>% arrange(desc(arr_delay_time)) %>% ggplot(mapping = aes(x=carrier,y=arr_delay_time))+geom_point(aes(size=count))

### 将group_by和filter结合
flights_sml %>% 
  group_by(year, month, day) %>%
  filter(rank(desc(arr_delay)) < 10)
#> # A tibble: 3,306 x 7
#> # Groups:   year, month, day [365]
#>    year month   day dep_delay arr_delay distance air_time
#>   <int> <int> <int>     <dbl>     <dbl>    <dbl>    <dbl>
#> 1  2013     1     1       853       851      184       41
#> 2  2013     1     1       290       338     1134      213
#> 3  2013     1     1       260       263      266       46
#> 4  2013     1     1       157       174      213       60
#> 5  2013     1     1       216       222      708      121
#> 6  2013     1     1       255       250      589      115
#> # … with 3,300 more rows

popular_dests <- flights %>% 
  group_by(dest) %>% 
  filter(n() > 365)
popular_dests
#> # A tibble: 332,577 x 19
#> # Groups:   dest [77]
#>    year month   day dep_time sched_dep_time dep_delay arr_time sched_arr_time
#>   <int> <int> <int>    <int>          <int>     <dbl>    <int>          <int>
#> 1  2013     1     1      517            515         2      830            819
#> 2  2013     1     1      533            529         4      850            830
#> 3  2013     1     1      542            540         2      923            850
#> 4  2013     1     1      544            545        -1     1004           1022
#> 5  2013     1     1      554            600        -6      812            837
#> 6  2013     1     1      554            558        -4      740            728
#> # … with 332,571 more rows, and 11 more variables: arr_delay <dbl>,
#> #   carrier <chr>, flight <int>, tailnum <chr>, origin <chr>, dest <chr>,
#> #   air_time <dbl>, distance <dbl>, hour <dbl>, minute <dbl>, time_hour <dttm>
…
